%++++++++++++++++++++++++++++++++++++++++++++++++++++++++++++++++++++++++++++++
% Greenland:
% Ice-land-ocean mask. 0: glaciated land, 1: ice-free land, 2: ocean.
% Horizontal resolution 20 km.
% 141 records [j = 140 (-1) 0] with  76 values [i = 0 (1)  75] in each record.
%++++++++++++++++++++++++++++++++++++++++++++++++++++++++++++++++++++++++++++++
2222222222222222222222222222222222222222222222222222222222222222222222222222
2222222222222222222222222222222222222222222222222222222222222222222222222222
2222222222222222222222222222222222222222222222222222222222222222222222222222
2222222222222222222222222222222222222222222222222222222222222222222222222222
2222222222222222222222222222222222222222222222222222222222222222222222222222
2222222222222222222222222222222222222222211111111222222222222222222222222222
2222222222222222222222222222222222222221111111111122222222222222222222222222
2222222222222222222222222222222222222111111111111111222222222222222222222222
2222222222222222222222222222222222211111111111111111112222222222222222222222
2222222222222222222222222222222222111111111111111111122222222222222222222222
2222222222222222222222222222222222111111111111111111122222222222222222222222
2222222222222222222222222111112111111111111111111111222222210022222222222222
2222222222222222222222211111111111111111111111111112112222100022222222222222
2222222222222222222222011111111011200000001111111111111211000022222222222222
2222222222222222222110000110010011110000000111111111111111000122222222222222
2222222222222222221110000010010011000000000010011001111111001122222222222222
2222222222222222111110000000000000000000000000010001111111011222222222222222
2222222222222221111100000000000000000000000000000011111110011222222222222222
2222222222222221111110000000000000000000000000000011111110111222222222222222
2222222222222222211110000000000000000000000000000001111111111222222222222222
2222222222222220000000000000000000000000000000000000111111111222222222222222
2222222222222220000000000000000000000000000000000000011111111222222222222222
2222222222112000000000000000000000000000000000000000000111111222222222222222
2222200111110000000000000000000000000000000000000000000010002222222222222222
2222000011100000000000000000000000000000000000000000000000002222222222222222
2222000000000000000000000000000000000000000000000000000000001222222222222222
2222200000000000000000000000000000000000000000000000000000000222222222222222
2222210000000000000000000000000000000000000000000000000000000022222222222222
2221110000000000000000000000000000000000000000000000000000000122222222222222
2222221000000000000000000000000000000000000000000000000000002222222222222222
2221122220000000000000000000000000000000000000000000000000000112222222222222
2221100010000000000000000000000000000000000000000000000000001212222222222222
2220000000000000000000000000000000000000000000000000000000001112222222222222
2222000000000000000000000000000000000000000000000000000000001111222222222222
2220000000000000000000000000000000000000000000000000000000001111222222222222
2220000000000000000000000000000000000000000000000000000000000012122222222222
2220000000000000000000000000000000000000000000000000000000000011112222222222
2222110000000000000000000000000000000000000000000000000000000011112222222222
2222221111000000000000000000000000000000000000000000000000000011112222222222
2222222222100000000000000000000000000000000000000000000000100012212222222222
2222222222200000000000000000000000000000000000000000000000110011221222222222
2222222222220000000000000000000000000000000000000000000000100011122222222222
2222222222220000000000000000000000000000000000000000000000100001112222222222
2222222222222000000000000000000000000000000000000000000000100001112222222222
2222222222222200000000000000000000000000000000000000000000100001111222222222
2222222222222000000000000000000000000000000000000000000000000001111222222222
2222222222222000000000000000000000000000000000000000000000000001111111222222
2222222222222000000000000000000000000000000000000000000000000001112222222222
2222222222222200000000000000000000000000000000000000000000000000111122222222
2222222222222200000000000000000000000000000000000000000000000000111121222222
2222222222222200000000000000000000000000000000000000000000000000111111222222
2222222222222210000000000000000000000000000000000000000000000000111111222222
2222222222222200000000000000000000000000000000000000000000000000011122222222
2222222222222200000000000000000000000000000000000000000000000000001122222222
2222222222222100000000000000000000000000000000000000000000000001011112222222
2222222222222100000000000000000000000000000000000000000000000001111112222222
2222222222222100000000000000000000000000000000000000000000111011111112222222
2222222222222100000000000000000000000000000000000000000011111111111222222222
2222222222222100000000000000000000000000000000000000000011111111122222222222
2222222222222100000000000000000000000000000000000000000111111111111222222222
2222222222222110000000000000000000000000000000000000000011111111111122222222
2222222222222110000000000000000000000000000000000000000001111111111122222222
2222222222222110000000000000000000000000000000000000000000011111111112222222
2222222222222111000000000000000000000000000000000000000000001111221112222222
2222222222221111000000000000000000000000000000000000000000001111112222222222
2222222222221111110000000000000000000000000000000000000000001111111122222222
2222222222211111110000000000000000000000000000000000000000001111111111222222
2222222222211111110000000000000000000000000000000000000000111111111111122222
2222222222221121110000000000000000000000000000000000000000101111111111122222
2222222222222222111000000000000000000000000000000000000000111111111111112222
2222222222222211110000000000000000000000000000000000000000111001122111112222
2222222222222222210000000000000000000000000000000000000000001001122111112222
2222222222221122210000000000000000000000000000000000000000000111122211111222
2222222222221111220000000000000000000000000000000000000000001111122221222222
2222222222212111120000000000000000000000000000000000000000001111122222222222
2222222222211111110000000000000000000000000000000000000000001111211111112222
2222222222111121110000000000000000000000000000000000000000001111111111122222
2222222222111112110000000000000000000000000000000000000000111121111111122222
2222222222111112210000000000000000000000000000000000000000011111111111122222
2222222222211111210000000000000000000000000000000000000000011111111111222222
2222222222211122210000000000000000000000000000000000000000011111111112222222
2222222222222222200000000000000000000000000000000000000000011111111122222222
2222222222222222200000000000000000000000000000000000000000111111111122222222
2222222222222222110000000000000000000000000000000000000000111111111222222222
2222222222221122100000000000000000000000000000000000000000011111112222222222
2222222222211111000000000000000000000000000000000000001000011111122222222222
2222222222111111000000000000000000000000000000000000001100001111222222222222
2222222222111111000000000000000000000000000000000000001110001122222222222222
2222222221111111000000000000000000000000000000000000011111001222222222222222
2222222221111111000000000000000000000000000000000000011111122222222222222222
2222222221111111000000000000000000000000000000000000111222222222222222222222
2222222211111111000000000000000000000000000000000000111222222222222222222222
2222222211111111000000000000000000000000000000000001112222222222222222222222
2222222211111110000000000000000000000000000000000001122222222222222222222222
2222222211111110000000000000000000000000000000000011122222222222222222222222
2222222211111111000000000000000000000000000000000011122222222222222222222222
2222222111111111000000000000000000000000000000000011222222222222222222222222
2222222111111111000000000000000000000000000000001111222222222222222222222222
2222222111111110000000000000000000000000000001111111222222222222222222222222
2222222111111110000000000000000000000000000011111112222222222222222222222222
2222222111111100000000000000000000000000000111111122222222222222222222222222
2222222111111000000000000000000000000000000111111222222222222222222222222222
2222222211111100000000000000000000000000000111112222222222222222222222222222
2222222221111100000000000000000000000000001111122222222222222222222222222222
2222222221111100000000000000000000000000001111222222222222222222222222222222
2222222221111100000000000000000000000001122222222222222222222222222222222222
2222222221111100000000000000000000000001222222222222222222222222222222222222
2222222211111100000000000000000000000012222222222222222222222222222222222222
2222222211111100000000000000000000001122222222222222222222222222222222222222
2222222221111100000000000000000000001222222222222222222222222222222222222222
2222222221111100000000000000000000001222222222222222222222222222222222222222
2222222221111000000000000000000000001122222222222222222222222222222222222222
2222222221111000000000000000000000011222222222222222222222222222222222222222
2222222221111000000000000000000000011222222222222222222222222222222222222222
2222222221111100000000000000000000111222222222222222222222222222222222222222
2222222221111000000000000000000000111222222222222222222222222222222222222222
2222222222111000000000000000000001112222222222222222222222222222222222222222
2222222222211000000000000000000001112222222222222222222222222222222222222222
2222222222111000000000000000000001122222222222222222222222222222222222222222
2222222222211000000000000000000111222222222222222222222222222222222222222222
2222222222211000000000000000001111222222222222222222222222222222222222222222
2222222222211100000000000000001112222222222222222222222222222222222222222222
2222222222221100000000000000000122222222222222222222222222222222222222222222
2222222222221110000000000000000122222222222222222222222222222222222222222222
2222222222221110000000000000000122222222222222222222222222222222222222222222
2222222222221111000000000000001122222222222222222222222222222222222222222222
2222222222222111000000000000011122222222222222222222222222222222222222222222
2222222222222111000000000000011122222222222222222222222222222222222222222222
2222222222222211110000110000111222222222222222222222222222222222222222222222
2222222222222211111111110000111222222222222222222222222222222222222222222222
2222222222222211111111110001112222222222222222222222222222222222222222222222
2222222222222222221111111111112222222222222222222222222222222222222222222222
2222222222222222222221111111112222222222222222222222222222222222222222222222
2222222222222222222221111111112222222222222222222222222222222222222222222222
2222222222222222222222111111122222222222222222222222222222222222222222222222
2222222222222222222222111111122222222222222222222222222222222222222222222222
2222222222222222222222211111122222222222222222222222222222222222222222222222
2222222222222222222222222112222222222222222222222222222222222222222222222222
2222222222222222222222222222222222222222222222222222222222222222222222222222
2222222222222222222222222222222222222222222222222222222222222222222222222222
2222222222222222222222222222222222222222222222222222222222222222222222222222
