%++++++++++++++++++++++++++++++++++++++++++++++++++++++++++++++++++++++++++++++
% Greenland:
% Mask. 0: glaciated land, 1: ice-free land, 2: ocean.
% Horizontal resolution 10 km.
% 281 records [j = 280 (-1) 0] with 151 values [i = 0 (1) 150] in each record.
%++++++++++++++++++++++++++++++++++++++++++++++++++++++++++++++++++++++++++++++
2222222222222222222222222222222222222222222222222222222222222222222222222222222222222222222222222222222222222222222222222222222222222222222222222222222
2222222222222222222222222222222222222222222222222222222222222222222222222222222222222222222222222222222222222222222222222222222222222222222222222222222
2222222222222222222222222222222222222222222222222222222222222222222222222222222222222222222222222222222222222222222222222222222222222222222222222222222
2222222222222222222222222222222222222222222222222222222222222222222222222222222222222222222222222222222222222222222222222222222222222222222222222222222
2222222222222222222222222222222222222222222222222222222222222222222222222222222222222222222222222222222222222222222222222222222222222222222222222222222
2222222222222222222222222222222222222222222222222222222222222222222222222222222222222222222222222222222222222222222222222222222222222222222222222222222
2222222222222222222222222222222222222222222222222222222222222222222222222222222222222222222222222222222222222222222222222222222222222222222222222222222
2222222222222222222222222222222222222222222222222222222222222222222222222222222222222222222222222222222222222222222222222222222222222222222222222222222
2222222222222222222222222222222222222222222222222222222222222222222222222222222222222222222222222222222222222222222222222222222222222222222222222222222
2222222222222222222222222222222222222222222222222222222222222222222222222222222222222211111221122222222222222222222222222222222222222222222222222222222
2222222222222222222222222222222222222222222222222222222222222222222222222222222222111111111110011222222222222222222222222222222222222222222222222222222
2222222222222222222222222222222222222222222222222222222222222222222222222222222200200000111110011222222222222222222222222222222222222222222222222222222
2222222222222222222222222222222222222222222222222222222222222222222222222222222200110000011111112112222222222222222222222222222222222222222222222222222
2222222222222222222222222222222222222222222222222222222222222222222222222222212200000011111222221111222222222222222222222222222222222222222222222222222
2222222222222222222222222222222222222222222222222222222222222222222222222212221211001111112111111111222222222222222222222222222222222222222222222222222
2222222222222222222222222222222222222222222222222222222222222222222222211111111211111111221001111111111112222222222222222222222222222222222222222222222
2222222222222222222222222222222222222222222222222222222222222222222222110011111211111112110001001111111111122222222222222222222222222222222222222222222
2222222222222222222222222222222222222222222222222222222222222222222221111111112100011121000001111111111111122222222222222222222222222222222222222222222
2222222222222222222222222222222222222222222222222222222222222222222122221111100010001011100011111111111111222222222222222222222222222222222222222222222
2222222222222222222222222222222222222222222222222222222222222222222222222222100010000001101111111111111111222222222222222222222222222222222222222222222
2222222222222222222222222222222222222222222222222222222222222222222212200011220000001011111111111111111112222222222222222222222222222222222222222222222
2222222222222222222222222222222222222222222222222211111111222201122201210001022000000011111111111111111222222222222222222222222222222222222222222222222
2222222222222222222222222222222222222222222222212111011112122200122201120000012000001011111111111111111222222112222220000022222222222222222222222222222
2222222222222222222222222222222222222222222221111211111112112201122210120000111000001111111111111111122221122212222200000002222222222222222222222222222
2222222222222222222222222222222222222222222221111211111112112211112211122000111100011111111111112222222211112222222200000000222222222222222222222222222
2222222222222222222222222222222222222222222221111211111112112011112221112100001111111111111111222211112211112222212110000000222222222222222222222222222
2222222222222222222222222222222222222222222221111111111112122211111222100110000011111111100012220111112221112222222100001102222222222222222222222222222
2222222222222222222222222222222222222222222211111111111121112001111122110000000000010001100122100011112211112221212000000012222222222222222222222222222
2222222222222222222222222222222222222221112210011111111010011001111122110000000000001111111221110111112111012221111000000002222222222222222222222222222
2222222222222222222222222222222222222101000000001111111010011201111110000000000000000111112211111111122111011211110000000022222222222222222222222222222
2222222222222222222222222222222222221001000000000011011110011201111110010000000000000001111100101111221111111211100000001122222222222222222222222222222
2222222222222222222222222222222222111001000000000001111110111101111110000000000000000101110000101110010111112211100000001122222222222222222222222222222
2222222222222222222222222222222211110011000000000000011011111101111110000000000000000001100001001101111111112211110000001122222222222222222222222222222
2222222222222222222222222222221111110111110000000000000001111101110110000000000000000000000000000011101111112101110001111222222222222222222222222222222
2222222222222222222222222222221111111111110000000000000000001000000000000000000000000000000000000111111111112100110000111222222222222222222222222222222
2222222222222222222222222222221101110111110000000000000000000000000000000000000000000000000000000011111111121000110000222222222222222222222222222222222
2222222222222222222222222222222101011111110000000000000000000000000000000000000000000000000000000000111111111100101112200122222222222222222222222222222
2222222222222222222222222222222121111111111000000000000000000000000000000000000000000000000000000001111111111100111000000222222222222222222222222222222
2222222222222222222222222222222221111111111000000000000000000000000000000000000000000000000000000000111111111101110000000222222222222222222222222222222
2222222222222222222222222222222222101111111000000000000000000000000000000000000000000000000000000000011111111111110001000222222222222222222222222222222
2222222222222222222222222222222200011011111000000000000000000000000000000000000000000000000000000000001111111111110022122222222222222222222222222222222
2222222222222222222222222222222200000011100000000000000000000000000000000000000000000000000000000000000011111111110011200222222222222222222222222222222
2222222222222222222222222222222200000000000000000000000000000000000000000000000000000000000000000000000001111111111122001222222222222222222222222222222
2222222222222222222222222222222000000000000000000000000000000000000000000000000000000000000000000000000011111111111120000222222222222222222222222222222
2222222222222222222221222222200000000000000000000000000000000000000000000000000000000000000000000000000000011111111121000222222222222222222222222222222
2222222222211112112211111122000000000000000000000000000000000000000000000000000000000000000000000000000000001111111101122222222222222222222222222222222
2222222222111111111111111110000000000000000000000000000000000000000000000000000000000000000000000000000000000111111100222222222222222222222222222222222
2222222221111111111111111100000000000000000000000000000000000000000000000000000000000000000000000000000000000111111000022222222222222222222222222222222
2222222220000111111111100000000000000000000000000000000000000000000000000000000000000000000000000000000000000111110000002222222222222222222222222222222
2222222220000011111111100000000000000000000000000000000000000000000000000000000000000000000000000000000000000011100000022222222222222222222222222222222
2222222220000001100000000000000000000000000000000000000000000000000000000000000000000000000000000000000000000000000001122222222222222222222222222222222
2222222221000000000000000000000000000000000000000000000000000000000000000000000000000000000000000000000000000000000011012221222222222222222222222222222
2222222222000000000000000000000000000000000000000000000000000000000000000000000000000000000000000000000000000000000111010022222222222222222222222222222
2222222222010000000000000000000000000000000000000000000000000000000000000000000000000000000000000000000000000000000011100222222222222222222222222222222
2222222222211000000000000000000000000000000000000000000000000000000000000000000000000000000000000000000000000000000000000222222222222222222222222222222
2222202222211000000000000000000000000000000000000000000000000000000000000000000000000000000000000000000000000000000000000122222222222222222222222222222
2222202222211000000000000000000000000000000000000000000000000000000000000000000000000000000000000000000000000000000000000122222222222222222222222222222
2222222222210110000000000000000000000000000000000000000000000000000000000000000000000000000000000000000000000000000000200222222222222222222222222222222
2222222222220200000000000000000000000000000000000000000000000000000000000000000000000000000000000000000000000000000001122222222222222222222222222222222
2222222122222211121000000000000000000000000000000000000000000000000000000000000000000000000000000000000000000000000001122222222222222222222222222222222
2222210002222222222000000000000000000000000000000000000000000000000000000000000000000000000000000000000000000000000000022222222222222222222222222222222
2222210000111022222100000000000000000000000000000000000000000000000000000000000000000000000000000000000000000000000100022222222222222222222222222222222
2222210100011111211000000000000000000000000000000000000000000000000000000000000000000000000000000000000000000000000000022222222222222222222222222222222
2222222110001111111100000000000000000000000000000000000000000000000000000000000000000000000000000000000000000000000000012222222222222222222222222222222
2222221100000011101000000000000000000000000000000000000000000000000000000000000000000000000000000000000000000000000000012222222222222222222222222222222
2222222100000011110000000000000000000000000000000000000000000000000000000000000000000000000000000000000000000000000010012221222222222222222222222222222
2222212210000011100000000000000000000000000000000000000000000000000000000000000000000000000000000000000000000000000010012111122222222222222222222222222
2222222222111000000000000000000000000000000000000000000000000000000000000000000000000000000000000000000000000000000000012111111222222222222222222222222
2222211111110000000000000000000000000000000000000000000000000000000000000000000000000000000000000000000000000000000000012112221222222222222222222222222
2222211100010000000000000000000000000000000000000000000000000000000000000000000000000000000000000000000000000000000000002111222222222222222222222222222
2222221000000000000000000000000000000000000000000000000000000000000000000000000000000000000000000000000000000000000000000111222222222222222222222222222
2222221000000000000000000000000000000000000000000000000000000000000000000000000000000000000000000000000000000000000000000111111201222222222222222222222
2222220000000000000000000000000000000000000000000000000000000000000000000000000000000000000000000000000000000000000000000111011111122222222222222222222
2222222002200000000000000000000000000000000000000000000000000000000000000000000000000000000000000000000000000000000000000111111111122222222222222222222
2222222202222000000000000000000000000000000000000000000000000000000000000000000000000000000000000000000000000000000000000111111111122222222222222222222
2222222222222000200000000000000000000000000000000000000000000000000000000000000000000000000000000000000000000000000001000011111111122222222222222222222
2222222222220222202200000000000000000000000000000000000000000000000000000000000000000000000000000000000000000000000011100011122222222222222222222222222
2222222222222222222200000000000000000000000000000000000000000000000000000000000000000000000000000000000000000000000100110011122222122222222222222222222
2222222222222222222222000000000000000000000000000000000000000000000000000000000000000000000000000000000000000000000111110021222222222222222222222222222
2222222222222222222222100000000000000000000000000000000000000000000000000000000000000000000000000000000000000000000001110022222222212222222222222222222
2222222222222222222222220000000000000000000000000000000000000000000000000000000000000000000000000000000000000000000101101012222222212222222222222222222
2222222222222222222222220000000000000000000000000000000000000000000000000000000000000000000000000000000000000000001110110001221222221222222222222222222
2222222222222222222222222200000000000000000000000000000000000000000000000000000000000000000000000000000000000000000011110011022222222222222222222222222
2222222222222222222222222200000000000000000000000000000000000000000000000000000000000000000000000000000000000000000011110000121111222222222222222222222
2222222222222222222222222200000000000000000000000000000000000000000000000000000000000000000000000000000000000000000111010000010111222222222222222222222
2222222222222222222222222220000000000000000000000000000000000000000000000000000000000000000000000000000000000000000001100000010011222222222222222222222
2222222222222222222222222220000000000000000000000000000000000000000000000000000000000000000000000000000000000000001010000000011111112222222222222222222
2222222222222222222222222222000000000000000000000000000000000000000000000000000000000000000000000000000000000000000000100000011111112222222222222222222
2222222222222222222222222222100000000000000000000000000000000000000000000000000000000000000000000000000000000000000000100000110111111222222222222222222
2222222222222222222222222222000000000000000000000000000000000000000000000000000000000000000000000000000000000000000000000000100001111222222222222222222
2222222222222222222222222222100000000000000000000000000000000000000000000000000000000000000000000000000000000000000000000000012111111122212222222222222
2222222222222222222222222221000000000000000000000000000000000000000000000000000000000000000000000000000000000000000000000000010111111122112222222222222
2222222222222222222222222221000000000000000000000000000000000000000000000000000000000000000000000000000000000000000000000000010112111122111112222222222
2222222222222222222222222222000000000000000000000000000000000000000000000000000000000000000000000000000000000000000000000000011111222122111222222222222
2222222222222222222222222222000000000000000000000000000000000000000000000000000000000000000000000000000000000000000000000000001111112222222222222222222
2222222222222222222222222222000000000000000000000000000000000000000000000000000000000000000000000000000000000000000000000000000111222222222222222222222
2222222222222222222222222222200000000000000000000000000000000000000000000000000000000000000000000000000000000000000000000000001111111122222222222222222
2222222222222222222222222222200000000000000000000000000000000000000000000000000000000000000000000000000000000000000000000000001111111112222222222222222
2222222222222222222222222222220000000000000000000000000000000000000000000000000000000000000000000000000000000000000000000000000001111112221222222222222
2222222222222222222222222222220000000000000000000000000000000000000000000000000000000000000000000000000000000000000000000000000001111212122222222222222
2222222222222222222222222222220000000000000000000000000000000000000000000000000000000000000000000000000000000000000000000000000010011111112222222222222
2222222222222222222222222222121000000000000000000000000000000000000000000000000000000000000000000000000000000000000000000000000101011111112222222222222
2222222222222222222222222222211000000000000000000000000000000000000000000000000000000000000000000000000000000000000000000000000000111121112222222222222
2222222222222222222222222222220000000000000000000000000000000000000000000000000000000000000000000000000000000000000000000000001101111112222222222222222
2222222222222222222222222222210000000000000000000000000000000000000000000000000000000000000000000000000000000000000000000000000011111011222222222222222
2222222222222222222222222222220000000000000000000000000000000000000000000000000000000000000000000000000000000000000000000001100001111112222222222222222
2222222222222222222222222222210000000000000000000000000000000000000000000000000000000000000000000000000000000000000000011111111100222222222222222222222
2222222222222222222222222222210000000000000000000000000000000000000000000000000000000000000000000000000000000000000000000111111110221122222222222222222
2222222222222222222222222221210000000000000000000000000000000000000000000000000000000000000000000000000000000000000000100001111111111011122222222222222
2222222222222222222222222222120000000000000000000000000000000000000000000000000000000000000000000000000000000000000000000000111101111111122222222222222
2222222222222222222222222222210000000000000000000000000000000000000000000000000000000000000000000000000000000000000000001000011111111111122222222222222
2222222222222222222222222222110000000000000000000000000000000000000000000000000000000000000000000000000000000000000000001111101111111111112222222222222
2222222222222222222222222222200000000000000000000000000000000000000000000000000000000000000000000000000000000000000000011111122111111111122222222222222
2222222222222222222222222222200000000000000000000000000000000000000000000000000000000000000000000000000000000000000000010011122111111112222222222222222
2222222222222222222222222221220000000000000000000000000000000000000000000000000000000000000000000000000000000000000111000001122211111122222222222222222
2222222222222222222222222222210000000000000000000000000000000000000000000000000000000000000000000000000000000000000001111111122222111122222222222222222
2222222222222222222222222222210000000000000000000000000000000000000000000000000000000000000000000000000000000000000001110012211112222222222222222222222
2222222222222222222222222222110000000000000000000000000000000000000000000000000000000000000000000000000000000000000112110112111111222222222222222222222
2222222222222222222222222221100000000000000000000000000000000000000000000000000000000000000000000000000000000000001001111110011111122222222222222222222
2222222222222222222222222222120000000000000000000000000000000000000000000000000000000000000000000000000000000000000000012221111112111112222222222222222
2222222222222222222222222222221000000000000000000000000000000000000000000000000000000000000000000000000000000000001111112011122111111112222222222222222
2222222222222222222222222111121000000000000000000000000000000000000000000000000000000000000000000000000000000000000012110011122111112111222222222222222
2222222222222222222222222211111000000000000000000000000000000000000000000000000000000000000000000000000000000000000001000111212211111222222222222222222
2222222222222222222222222221211000000000000000000000000000000000000000000000000000000000000000000000000000000000000011011002112211111112222222222222222
2222222222222222222222222212111100000000000000000000000000000000000000000000000000000000000000000000000000000000000001111222111211111111122222222222222
2222222222222222222222222211111100000000000000000000000000000000000000000000000000000000000000000000000000000000000000001110011122111122222222222222222
2222222222222222222222222211111110000000000000000000000000000000000000000000000000000000000000000000000000000000000001110110111222222101122222222222222
2222222222222222222222222121111110000000000000000000000000000000000000000000000000000000000000000000000000000000000000100000112112222221122222222222222
2222222222222222222222222111111100000000000000000000000000000000000000000000000000000000000000000000000000000000000001010011011001112222222222222222222
2222222222222222222222221111112000000000000000000000000000000000000000000000000000000000000000000000000000000000000000000111111001111122222222222222222
2222222222222222222222212111111110000000000000000000000000000000000000000000000000000000000000000000000000000000000000000000011000011111222222222222222
2222222222222222222222221111111100000000000000000000000000000000000000000000000000000000000000000000000000000000000000001111001000001111222222222222222
2222222222222222222222211111110101000000000000000000000000000000000000000000000000000000000000000000000000000000000000001101111001111111221222222222222
2222222222222222222222211111111221000000000000000000000000000000000000000000000000000000000000000000000000000000001100000111000001111112121222222222222
2222222222222222222222211111122111000000000000000000000000000000000000000000000000000000000000000000000000000000001121100000000001111111112222222222222
2222222222222222222222211111221111000000000000000000000000000000000000000000000000000000000000000000000000000000000111220110000001111111112002222222222
2222222222222222222222222111222222221000000000000000000000000000000000000000000000000000000000000000000000000000001011122111001101111111112012222222222
2222222222222222222222222222222211100000000000000000000000000000000000000000000000000000000000000000000000000000000111111201121111111111111111222222222
2222222222222222222222222222222111122000000000000000000000000000000000000000000000000000000000000000000000000000000001112222221211111111111111222222222
2222222222222222222222222222121012110000000000000000000000000000000000000000000000000000000000000000000000000000000011101101001022211111111111222222222
2222222222222222222222222221121111221000000000000000000000000000000000000000000000000000000000000000000000000000000110011100001122221111111110122222222
2222222222222222222222222222122222100000000000000000000000000000000000000000000000000000000000000000000000000000000000001000000122222111111110122222222
2222222222222222222222222222222222221000000000000000000000000000000000000000000000000000000000000000000000000000000000001000000222222211111111022222222
2222222222222222222222222122222222121100000000000000000000000000000000000000000000000000000000000000000000000000000010001110002112222211111121022222222
2222222222222222222222221112222221201000000000000000000000000000000000000000000000000000000000000000000000000000000011001110021001222221111121112222222
2222222222222222222222221111112222221100000000000000000000000000000000000000000000000000000000000000000000000000000000112212200011222221111112212222222
2222222222222222222222221110101222212100000000000000000000000000000000000000000000000000000000000000000000000000000000011212000011122222211112222222222
2222222222222222222222222111111122221100000000000000000000000000000000000000000000000000000000000000000000000000000000001210001111222222222222222222222
2222222222222222222222222211111022221100000000000000000000000000000000000000000000000000000000000000000000000000000000001210001122222222222222222222222
2222222222222222222221111221111002221100000000000000000000000000000000000000000000000000000000000000000000000000000001112100022222222222222222212222222
2222222222222222222221111122201100121100000000000000000000000000000000000000000000000000000000000000000000000000000000012111211122021002222220022222222
2222222222222222222221111112211111112000000000000000000000000000000000000000000000000000000000000000000000000000000010212210011221000000000001222222222
2222222222222222222211111111221111111100000000000000000000000000000000000000000000000000000000000000000000000000000001001100121210000000000012222222222
2222222222222222222211111111221101111100000000000000000000000000000000000000000000000000000000000000000000000000000001110100210000000000000111222222222
2222222222222222222211110001222211211100000000000000000000000000000000000000000000000000000000000000000000000000000000110212210000000000001112222222222
2222222222222222222111110000122222222200000000000000000000000000000000000000000000000000000000000000000000000000000000011221200000000000011112222222222
2222222222222222222211111100112222122000000000000000000000000000000000000000000000000000000000000000000000000000000000000000000000000000011122222222222
2222222222222222222222111100111221122100000000000000000000000000000000000000000000000000000000000000000000000000000000000000000000000000012222222222222
2222222222222222222221211101111221211100000000000000000000000000000000000000000000000000000000000000000000000000000000000000000000000001112222222222222
2222222222222222222221111011112221221000000000000000000000000000000000000000000000000000000000000000000000000000000000000000000000000001112222222222222
2222222222222222222222111222222222111000000000000000000000000000000000000000000000000000000000000000000000000000000000000000000000000001122222222222222
2222222222222222222222222222222222111000000000000000000000000000000000000000000000000000000000000000000000000000000000000000000000000112222222222222222
2222222222222222222222222222222221110000000000000000000000000000000000000000000000000000000000000000000000000000000000000000000000000011222222222222222
2222222222222222222222222222222221111000000000000000000000000000000000000000000000000000000000000000000000000000000000000000000000000112222222222222222
2222222222222222222222222222222222222200000000000000000000000000000000000000000000000000000000000000000000000000000000000000000000000122222222222222222
2222222222222222222222222222222211111000000000000000000000000000000000000000000000000000000000000000000000000000000000000000000100000222222222222222222
2222222222222222222222222222222211211000000000000000000000000000000000000000000000000000000000000000000000000000000000000000000000001222222222222222222
2222222222222222222222222222222211101000000000000000000000000000000000000000000000000000000000000000000000000000000000000000000000002222222222222222222
2222222222222222222222211122222111100000000000000000000000000000000000000000000000000000000000000000000000000000000000000000000000112222222222222222222
2222222222222222222222222111222211100000000000000000000000000000000000000000000000000000000000000000000000000000000000000000000011222222222222222222222
2222222222222222222222222111222111000000000000000000000000000000000000000000000000000000000000000000000000000000000000000000000112222222222222222222222
2222222222222222222221211111111110000000000000000000000000000000000000000000000000000000000000000000000000000000000000000000011222222222222222222222222
2222222222222222222222211111121100000000000000000000000000000000000000000000000000000000000000000000000000000000000000000000122222222222222222222222222
2222222222222222222221222111110000000000000000000000000000000000000000000000000000000000000000000000000000010000000001000001222222222222222222222222222
2222222222222222222211111112221110000000000000000000000000000000000000000000000000000000000000000000000010210000000100101112222222222222222222222222222
2222222222222222222221111121121110000000000000000000000000000000000000000000000000000000000000000000000000221000000002201222222222222222222222222222222
2222222222222222222111111111111110000000000000000000000000000000000000000000000000000000000000000000000000022000000002222222222222222222222222222222222
2222222222222222221111111111121210000000000000000000000000000000000000000000000000000000000000000000000000002221110211222222222222222222222222222222222
2222222222222222221111112111111210000000000000000000000000000000000000000000000000000000000000000000000000001211111022222222222222222222222222222222222
2222222222222222221111111211211111000000000000000000000000000000000000000000000000000000000000000000000000000022222222222222222222222222222222222222222
2222222222222222211111111111211111000000000000000000000000000000000000000000000000000000000000000000000000000222222222222222222222222222222222222222222
2222222222222222211111111111111111000000000000000000000000000000000000000000000000000000000000000000000000000222222222222222222222222222222222222222222
2222222222222222111111111111111111000000000000000000000000000000000000000000000000000000000000000000000000002222222222222222222222222222222222222222222
2222222222222222111111111111111111000000000000000000000000000000000000000000000000000000000000000000000000022222222222222222222222222222222222222222222
2222222222222222111111111111111111000000000000000000000000000000000000000000000000000000000000000000000000222222222222222222222222222222222222222222222
2222222222222222111111111111111111000000000000000000000000000000000000000000000000000000000000000000000002222222222222222222222222222222222222222222222
2222222222222222211111111111111110000000000000000000000000000000000000000000000000000000000000000000000002222222222222222222222222222222222222222222222
2222222222222222212111111111111100000000000000000000000000000000000000000000000000000000000000000000000002222222222222222222222222222222222222222222222
2222222222222222222111111111111100000000000000000000000000000000000000000000000000000000000000000000000022222222222222222222222222222222222222222222222
2222222222222222111111111122111100000000000000000000000000000000000000000000000000000000000000000000000002222222222222222222222222222222222222222222222
2222222222222222111111112111111100000000000000000000000000000000000000000000000000000000000000000000000022222222222222222222222222222222222222222222222
2222222222222221111111111111111110000000000000000000000000000000000000000000000000000000000000000000000022222222222222222222222222222222222222222222222
2222222222222211111111111111111110000000000000000000000000000000000000000000000000000000000000000000000222222222222222222222222222222222222222222222222
2222222222222221111101111111111110000000000000000000000000000000000000000000000000000000000000000000002222222222222222222222222222222222222222222222222
2222222222222211111000011111111110000000000000000000000000000000000000000000000000000000000000000000002222222222222222222222222222222222222222222222222
2222222222222211110000001111111110000000000000000000000000000000000000000000000000000000000000000000002222222222222222222222222222222222222222222222222
2222222222222211000000001111111110000000000000000000000000000000000000000000000000000000000000000000112222222222222222222222222222222222222222222222222
2222222222222221111000100011111100000000000000000000000000000000000000000000000000000000000000000000222222222222222222222222222222222222222222222222222
2222222222222222111001000000001100000000000000000000000000000000000000000000000000000000000000000000022222222222222222222222222222222222222222222222222
2222222222222221111100000000010000000000000000000000000000000000000000000000000000001101000000110000222222222222222222222222222222222222222222222222222
2222222222222221110001100000000000000000000000000000000000000000000000000000000000001111111000011112222222222222222222222222222222222222222222222222222
2222222222222211210011111100000000000000000000000000000000000000000000000000000000000222210000012122222222222222222222222222222222222222222222222222222
2222222222222222111011111110000000000000000000000000000000000000000000000000000000000122100000012222222222222222222222222222222222222222222222222222222
2222222222222222211111111110000000000000000000000000000000000000000000000000000000001221110100122222222222222222222222222222222222222222222222222222222
2222222222222222211111111111000000000000000000000000000000000000000000000000000000001211010120222222222222222222222222222222222222222222222222222222222
2222222222222222211111111111000000000000000000000000000000000000000000000000000000011210111122222222222222222222222222222222222222222222222222222222222
2222222222222222221111111111000000000000000000000000000000000000000000000000000000022211122122222222222222222222222222222222222222222222222222222222222
2222222222222222221111111110000000000000000000000000000000000000000000000000000000011211121222222222222222222222222222222222222222222222222222222222222
2222222222222222221111111111000000000000000000000000000000000000000000000000000100111211212222222222222222222222222222222222222222222222222222222222222
2222222222222222221111111111100000000000000000000000000000000000000000000000021111222212212222222222222222222222222222222222222222222222222222222222222
2222222222222222211111111111100000000000000000000000000000000000000000000000222222222222222222222222222222222222222222222222222222222222222222222222222
2222222222222222221111111111000000000000000000000000000000000000000000000000222222222222222222222222222222222222222222222222222222222222222222222222222
2222222222222222211111111111000000000000000000000000000000000000000000000000222222222222222222222222222222222222222222222222222222222222222222222222222
2222222222222222211112112111100000000000000000000000000000000000000000000000222222222222222222222222222222222222222222222222222222222222222222222222222
2222222222222222211122221211100000000000000000000000000000000000000000000000222222222222222222222222222222222222222222222222222222222222222222222222222
2222222222222222211122211111100000000000000000000000000000000000000000222102222222222222222222222222222222222222222222222222222222222222222222222222222
2222222222222222111211221111100000000000000000000000000000000000000000222222222222222222222222222222222222222222222222222222222222222222222222222222222
2222222222222222112222111121100000000000000000000000000000000000000000202222222222222222222222222222222222222222222222222222222222222222222222222222222
2222222222222222222221111111100000000000000000000000000000000000000000000222222222222222222222222222222222222222222222222222222222222222222222222222222
2222222222222222221111121111110000000000000000000000000000000000000000000222222222222222222222222222222222222222222222222222222222222222222222222222222
2222222222222222221111111111000000000000000000000000000000000000000000000022222222222222222222222222222222222222222222222222222222222222222222222222222
2222222222222222221111111110000000000000000000000000000000000000000000000022222222222222222222222222222222222222222222222222222222222222222222222222222
2222222222222222221111111111000000000000000000000000000000000000000000000022222222222222222222222222222222222222222222222222222222222222222222222222222
2222222222222222221111111111000000000000000000000000000000000000000010000222222222222222222222222222222222222222222222222222222222222222222222222222222
2222222222222222211110011100000000000000000000000000000000000000000022202222222222222222222222222222222222222222222222222222222222222222222222222222222
2222222222222222221111100100000000000000000000000000000000000000000022222222222222222222222222222222222222222222222222222222222222222222222222222222222
2222222222222222221111000000000000000000000000000000000000000000000000002222222222222222222222222222222222222222222222222222222222222222222222222222222
2222222222222222222111000000000000000000000000000000000000000000000000002222222222222222222222222222222222222222222222222222222222222222222222222222222
2222222222222222222111111100000000000000000000000000000000000000000000002222222222222222222222222222222222222222222222222222222222222222222222222222222
2222222222222222222111111111000000000000000000000000000000000000000200002222222222222222222222222222222222222222222222222222222222222222222222222222222
2222222222222222222111111111000000000000000000000000000000000000000220002222222222222222222222222222222222222222222222222222222222222222222222222222222
2222222222222222222111111110000000000000000000000000000000000000000000222222222222222222222222222222222222222222222222222222222222222222222222222222222
2222222222222222222211111110000000000000000000000000000000000000001110022222222222222222222222222222222222222222222222222222222222222222222222222222222
2222222222222222222221111100000000000000000000000000000000000000011111222222222222222222222222222222222222222222222222222222222222222222222222222222222
2222222222222222222221111100000000000000000000000000000000000000011121222222222222222222222222222222222222222222222222222222222222222222222222222222222
2222222222222222222221111100000000000000000000000000000000000000101112222222222222222222222222222222222222222222222222222222222222222222222222222222222
2222222222222222222221111000000000000000000000000000000000000000110122222222222222222222222222222222222222222222222222222222222222222222222222222222222
2222222222222222222221110000000000000000000000000000000000000001211122222222222222222222222222222222222222222222222222222222222222222222222222222222222
2222222222222222222221000000000000000000000000000000000000000000111222222222222222222222222222222222222222222222222222222222222222222222222222222222222
2222222222222222222221001100000000000000000000000000000000000011011222222222222222222222222222222222222222222222222222222222222222222222222222222222222
2222222222222222222221111100000000000000000000000000000000101121112222222222222222222222222222222222222222222222222222222222222222222222222222222222222
2222222222222222222222111100000000000000000000000000000000111211222222222222222222222222222222222222222222222222222222222222222222222222222222222222222
2222222222222222222222211110000000000000000000000000000000002222222222222222222222222222222222222222222222222222222222222222222222222222222222222222222
2222222222222222222222221110000000000000000000000000000000001122222222222222222222222222222222222222222222222222222222222222222222222222222222222222222
2222222222222222222222222111000000000000000000000000000000022122222222222222222222222222222222222222222222222222222222222222222222222222222222222222222
2222222222222222222222211121000000000000000000000000000000000212222222222222222222222222222222222222222222222222222222222222222222222222222222222222222
2222222222222222222222222111100000000000000000000000000000000022222222222222222222222222222222222222222222222222222222222222222222222222222222222222222
2222222222222222222222221111111000000000000000000000000000000002222222222222222222222222222222222222222222222222222222222222222222222222222222222222222
2222222222222222222222221111111000000000000000000000000000000002222222222222222222222222222222222222222222222222222222222222222222222222222222222222222
2222222222222222222222222111111000000000000000000000000000000022222222222222222222222222222222222222222222222222222222222222222222222222222222222222222
2222222222222222222222222111111000000000000000000000000000000002222222222222222222222222222222222222222222222222222222222222222222222222222222222222222
2222222222222222222222222111111100000000000000000000000000000002222222222222222222222222222222222222222222222222222222222222222222222222222222222222222
2222222222222222222222222211111100000000000000000000000000000002222222222222222222222222222222222222222222222222222222222222222222222222222222222222222
2222222222222222222222222221111000000000000000000000000000000222222222222222222222222222222222222222222222222222222222222222222222222222222222222222222
2222222222222222222222222222111100000000000000000000000000000022222222222222222222222222222222222222222222222222222222222222222222222222222222222222222
2222222222222222222222222222121100000000001011110000000000001222222222222222222222222222222222222222222222222222222222222222222222222222222222222222222
2222222222222222222222222222111100000000011111000000000000000222222222222222222222222222222222222222222222222222222222222222222222222222222222222222222
2222222222222222222222222222222100000000011111010000000000000222222222222222222222222222222222222222222222222222222222222222222222222222222222222222222
2222222222222222222222222222222111000000112111111000000000012222222222222222222222222222222222222222222222222222222222222222222222222222222222222222222
2222222222222222222222222222221111111112121121111000000000222222222222222222222222222222222222222222222222222222222222222222222222222222222222222222222
2222222222222222222222222222211112211221211211100000000000222222222222222222222222222222222222222222222222222222222222222222222222222222222222222222222
2222222222222222222222222222211222222112211121110000000000022222222222222222222222222222222222222222222222222222222222222222222222222222222222222222222
2222222222222222222222222222222222222222121111110000000000022222222222222222222222222222222222222222222222222222222222222222222222222222222222222222222
2222222222222222222222222222222222222222221111111000000011122222222222222222222222222222222222222222222222222222222222222222222222222222222222222222222
2222222222222222222222222222222222222222221111111000000000022222222222222222222222222222222222222222222222222222222222222222222222222222222222222222222
2222222222222222222222222222222222222222222211111001010000122222222222222222222222222222222222222222222222222222222222222222222222222222222222222222222
2222222222222222222222222222222222222222222221211100121111222222222222222222222222222222222222222222222222222222222222222222222222222222222222222222222
2222222222222222222222222222222222222222222211111100000222222222222222222222222222222222222222222222222222222222222222222222222222222222222222222222222
2222222222222222222222222222222222222222222212111111000122222222222222222222222222222222222222222222222222222222222222222222222222222222222222222222222
2222222222222222222222222222222222222222222221211111000012222222222222222222222222222222222222222222222222222222222222222222222222222222222222222222222
2222222222222222222222222222222222222222222221111121000022222222222222222222222222222222222222222222222222222222222222222222222222222222222222222222222
2222222222222222222222222222222222222222222222111111111012222222222222222222222222222222222222222222222222222222222222222222222222222222222222222222222
2222222222222222222222222222222222222222222222222112111122222222222222222222222222222222222222222222222222222222222222222222222222222222222222222222222
2222222222222222222222222222222222222222222222222111122222222222222222222222222222222222222222222222222222222222222222222222222222222222222222222222222
2222222222222222222222222222222222222222222222222221122222222222222222222222222222222222222222222222222222222222222222222222222222222222222222222222222
2222222222222222222222222222222222222222222222222222222222222222222222222222222222222222222222222222222222222222222222222222222222222222222222222222222
2222222222222222222222222222222222222222222222222222222222222222222222222222222222222222222222222222222222222222222222222222222222222222222222222222222
2222222222222222222222222222222222222222222222222222222222222222222222222222222222222222222222222222222222222222222222222222222222222222222222222222222
2222222222222222222222222222222222222222222222222222222222222222222222222222222222222222222222222222222222222222222222222222222222222222222222222222222
2222222222222222222222222222222222222222222222222222222222222222222222222222222222222222222222222222222222222222222222222222222222222222222222222222222
2222222222222222222222222222222222222222222222222222222222222222222222222222222222222222222222222222222222222222222222222222222222222222222222222222222
